…
library(tibble)
library(gssrdoc)

gss_doc
#> # A tibble: 6,694 × 10
#>    variable description                           question         value_labels var_yrtab yrballot_df module_df subject_df norc_id norc_url
#>    <chr>    <chr>                                 <chr>            <chr>        <list>    <list>      <list>    <list>       <int> <chr>
#>  1 year     GSS year for this respondent          "GSS year"       "[NA(d)] do… <chr [1]> <tibble>    <tibble>  <tibble>         1 https:/…
#>  2 id       Respondent id number                  "Respondent id … ""           <chr [1]> <tibble>    <tibble>  <tibble>         2 https:/…
#>  3 wrkstat  labor force status                    "Last week were… "[1] workin… <tibble>  <tibble>    <tibble>  <tibble>         3 https:/…
#>  4 hrs1     number of hours worked last week      "Last week were… "[89] 89+ h… <chr [1]> <tibble>    <tibble>  <tibble>         4 https:/…
#>  5 hrs2     number of hours usually work a week   "Last week were… "[89] 89+ h… <tibble>  <tibble>    <tibble>  <tibble>         5 https:/…
#>  6 evwork   ever work as long as one year         "Last week were… "[1] yes / … <tibble>  <tibble>    <tibble>  <tibble>         6 https:/…
#>  7 occ      R's census occupation code (1970)     "A. What kind o… "[NA(d)] do… <chr [1]> <tibble>    <tibble>  <tibble>         7 https:/…
#>  8 prestige r's occupational prestige score(1970) "A. What kind o… "[NA(d)] do… <tibble>  <tibble>    <tibble>  <tibble>         8 https:/…
#>  9 wrkslf   r self-emp or works for somebody      "A. What kind o… "[1] self-e… <tibble>  <tibble>    <tibble>  <tibble>         9 https:/…
#> 10 wrkgovt  govt or private employee              "A. What kind o… "[1] govern… <tibble>  <tibble>    <tibble>  <tibble>        10 https:/…
#> # ℹ 6,684 more rows
…
library(tibble)
library(gssrdoc)

gss_doc
#> # A tibble: 6,694 × 10
#>    variable description                           question         value_labels var_yrtab yrballot_df module_df subject_df norc_id norc_url
#>    <chr>    <chr>                                 <chr>            <chr>        <list>    <list>      <list>    <list>       <int> <chr>
#>  1 year     GSS year for this respondent          "GSS year"       "[NA(d)] do… <chr [1]> <tibble>    <tibble>  <tibble>         1 https:/…
#>  2 id       Respondent id number                  "Respondent id … ""           <chr [1]> <tibble>    <tibble>  <tibble>         2 https:/…
#>  3 wrkstat  labor force status                    "Last week were… "[1] workin… <tibble>  <tibble>    <tibble>  <tibble>         3 https:/…
#>  4 hrs1     number of hours worked last week      "Last week were… "[89] 89+ h… <chr [1]> <tibble>    <tibble>  <tibble>         4 https:/…
#>  5 hrs2     number of hours usually work a week   "Last week were… "[89] 89+ h… <tibble>  <tibble>    <tibble>  <tibble>         5 https:/…
#>  6 evwork   ever work as long as one year         "Last week were… "[1] yes / … <tibble>  <tibble>    <tibble>  <tibble>         6 https:/…
#>  7 occ      R's census occupation code (1970)     "A. What kind o… "[NA(d)] do… <chr [1]> <tibble>    <tibble>  <tibble>         7 https:/…
#>  8 prestige r's occupational prestige score(1970) "A. What kind o… "[NA(d)] do… <tibble>  <tibble>    <tibble>  <tibble>         8 https:/…
#>  9 wrkslf   r self-emp or works for somebody      "A. What kind o… "[1] self-e… <tibble>  <tibble>    <tibble>  <tibble>         9 https:/…
#> 10 wrkgovt  govt or private employee              "A. What kind o… "[1] govern… <tibble>  <tibble>    <tibble>  <tibble>        10 https:/…
#> # ℹ 6,684 more rows
…
